{
  "id": 1381,
  "url": "http://localhost:8000/v3/cards/person/recent-activity/?id=1381&page=5",
  "data": {
    "results": [
      {
        "timestamp": null,
        "answer_timestamp": null,
        "title": "kolesarski promet v ČS Šentvid",
        "authors": [
          {
            "name": "Levica",
            "acronym": null,
            "slug": "20-levica",
            "color": "#035166",
            "classification": "pg"
          }
        ],
        "recipient_people": [],
        "recipient_text": null,
        "url": "https://www.ljubljana.si/assets/Uploads/2.-tocka-Pobuda-Svetniskega-kluba-Levica-kolesarski-promet-v-CS-Sentvid.pdf",
        "type": "initiative"
      },
      {
        "timestamp": "2021-12-13T15:30:00",
        "answer_timestamp": null,
        "title": "kolesarski promet v ČS Šentvid",
        "authors": [
          {
            "name": "Levica",
            "acronym": null,
            "slug": "20-levica",
            "color": "#035166",
            "classification": "pg"
          }
        ],
        "recipient_people": [],
        "recipient_text": null,
        "url": "https://www.ljubljana.si/assets/Uploads/2.-tocka-Pobuda-Svetniskega-kluba-Levica-kolesarski-promet-v-CS-Sentvid.pdf",
        "type": "initiative"
      },
      {
        "type": "speech",
        "id": 1072819,
        "the_order": 2608,
        "start_time": "2025-01-16T00:00:00",
        "session": {
          "name": "5. sjednica",
          "id": 1754,
          "start_time": "2025-01-15T09:30:00",
          "end_time": null,
          "organizations": [
            {
              "name": "Sabor",
              "acronym": null,
              "slug": "1127-sabor",
              "color": "#09A2CC",
              "classification": "root",
              "is_in_coalition": false
            }
          ],
          "classification": "regular",
          "in_review": false,
          "has_transcript": true,
          "has_agenda_items": true,
          "has_minutes": false,
          "has_legislation": true,
          "has_votes": true
        }
      },
      {
        "type": "speech",
        "id": 1072823,
        "the_order": 2612,
        "start_time": "2025-01-16T00:00:00",
        "session": {
          "name": "5. sjednica",
          "id": 1754,
          "start_time": "2025-01-15T09:30:00",
          "end_time": null,
          "organizations": [
            {
              "name": "Sabor",
              "acronym": null,
              "slug": "1127-sabor",
              "color": "#09A2CC",
              "classification": "root",
              "is_in_coalition": false
            }
          ],
          "classification": "regular",
          "in_review": false,
          "has_transcript": true,
          "has_agenda_items": true,
          "has_minutes": false,
          "has_legislation": true,
          "has_votes": true
        }
      },
      {
        "type": "speech",
        "id": 1072827,
        "the_order": 2616,
        "start_time": "2025-01-16T00:00:00",
        "session": {
          "name": "5. sjednica",
          "id": 1754,
          "start_time": "2025-01-15T09:30:00",
          "end_time": null,
          "organizations": [
            {
              "name": "Sabor",
              "acronym": null,
              "slug": "1127-sabor",
              "color": "#09A2CC",
              "classification": "root",
              "is_in_coalition": false
            }
          ],
          "classification": "regular",
          "in_review": false,
          "has_transcript": true,
          "has_agenda_items": true,
          "has_minutes": false,
          "has_legislation": true,
          "has_votes": true
        }
      },
      {
        "type": "speech",
        "id": 1072831,
        "the_order": 2620,
        "start_time": "2025-01-16T00:00:00",
        "session": {
          "name": "5. sjednica",
          "id": 1754,
          "start_time": "2025-01-15T09:30:00",
          "end_time": null,
          "organizations": [
            {
              "name": "Sabor",
              "acronym": null,
              "slug": "1127-sabor",
              "color": "#09A2CC",
              "classification": "root",
              "is_in_coalition": false
            }
          ],
          "classification": "regular",
          "in_review": false,
          "has_transcript": true,
          "has_agenda_items": true,
          "has_minutes": false,
          "has_legislation": true,
          "has_votes": true
        }
      },
      {
        "type": "speech",
        "id": 1072839,
        "the_order": 2628,
        "start_time": "2025-01-16T00:00:00",
        "session": {
          "name": "5. sjednica",
          "id": 1754,
          "start_time": "2025-01-15T09:30:00",
          "end_time": null,
          "organizations": [
            {
              "name": "Sabor",
              "acronym": null,
              "slug": "1127-sabor",
              "color": "#09A2CC",
              "classification": "root",
              "is_in_coalition": false
            }
          ],
          "classification": "regular",
          "in_review": false,
          "has_transcript": true,
          "has_agenda_items": true,
          "has_minutes": false,
          "has_legislation": true,
          "has_votes": true
        }
      },
      {
        "type": "speech",
        "id": 1072855,
        "the_order": 2644,
        "start_time": "2025-01-16T00:00:00",
        "session": {
          "name": "5. sjednica",
          "id": 1754,
          "start_time": "2025-01-15T09:30:00",
          "end_time": null,
          "organizations": [
            {
              "name": "Sabor",
              "acronym": null,
              "slug": "1127-sabor",
              "color": "#09A2CC",
              "classification": "root",
              "is_in_coalition": false
            }
          ],
          "classification": "regular",
          "in_review": false,
          "has_transcript": true,
          "has_agenda_items": true,
          "has_minutes": false,
          "has_legislation": true,
          "has_votes": true
        }
      },
      {
        "type": "speech",
        "id": 1072861,
        "the_order": 2650,
        "start_time": "2025-01-16T00:00:00",
        "session": {
          "name": "5. sjednica",
          "id": 1754,
          "start_time": "2025-01-15T09:30:00",
          "end_time": null,
          "organizations": [
            {
              "name": "Sabor",
              "acronym": null,
              "slug": "1127-sabor",
              "color": "#09A2CC",
              "classification": "root",
              "is_in_coalition": false
            }
          ],
          "classification": "regular",
          "in_review": false,
          "has_transcript": true,
          "has_agenda_items": true,
          "has_minutes": false,
          "has_legislation": true,
          "has_votes": true
        }
      },
      {
        "type": "ballot",
        "vote": {
          "all_votes": {
            "for": 77,
            "against": 48,
            "abstain": 0,
            "absent": 25,
            "did not vote": 0
          },
          "passed": true,
          "id": 136586,
          "is_outlier": false,
          "has_outliers": false,
          "has_named_votes": true,
          "title": "izvješće o radu vijeća za elektroničke medije i agencije za elektroničke medije za 2023. godinu - podnositelj: ravnatelj agencije za elektroničke medije i vijeća za elektroničke medije",
          "timestamp": "2024-12-13T13:07:00",
          "session": {
            "name": "4. sjednica",
            "id": 1753,
            "start_time": "2024-11-05T00:00:00",
            "end_time": "2024-12-13T21:00:00",
            "organizations": [
              {
                "name": "Sabor",
                "acronym": null,
                "slug": "1127-sabor",
                "color": "#09A2CC",
                "classification": "root",
                "is_in_coalition": false
              }
            ],
            "classification": "regular",
            "in_review": false,
            "has_transcript": true,
            "has_agenda_items": true,
            "has_minutes": false,
            "has_legislation": true,
            "has_votes": true
          }
        },
        "option": "against"
      },
      {
        "type": "ballot",
        "vote": {
          "all_votes": {
            "for": 80,
            "against": 3,
            "abstain": 35,
            "absent": 32,
            "did not vote": 0
          },
          "passed": true,
          "id": 136585,
          "is_outlier": false,
          "has_outliers": false,
          "has_named_votes": true,
          "title": "izvješće o provedbi deklaracije hrvatskoga sabora o položaju hrvatskog naroda u bosni i hercegovini za 2023. godinu - podnositelj: ministarstvo vanjskih i europskih poslova",
          "timestamp": "2024-12-13T13:06:00",
          "session": {
            "name": "4. sjednica",
            "id": 1753,
            "start_time": "2024-11-05T00:00:00",
            "end_time": "2024-12-13T21:00:00",
            "organizations": [
              {
                "name": "Sabor",
                "acronym": null,
                "slug": "1127-sabor",
                "color": "#09A2CC",
                "classification": "root",
                "is_in_coalition": false
              }
            ],
            "classification": "regular",
            "in_review": false,
            "has_transcript": true,
            "has_agenda_items": true,
            "has_minutes": false,
            "has_legislation": true,
            "has_votes": true
          }
        },
        "option": "abstain"
      },
      {
        "type": "ballot",
        "vote": {
          "all_votes": {
            "for": 126,
            "against": 0,
            "abstain": 0,
            "absent": 24,
            "did not vote": 0
          },
          "passed": true,
          "id": 136574,
          "is_outlier": false,
          "has_outliers": false,
          "has_named_votes": true,
          "title": "prijedlog odluke o imenovanju zamjenica pravobranitelja za osobe s invaliditetom - podnositelj: pravobranitelj za osobe s invaliditetom",
          "timestamp": "2024-12-13T13:05:00",
          "session": {
            "name": "4. sjednica",
            "id": 1753,
            "start_time": "2024-11-05T00:00:00",
            "end_time": "2024-12-13T21:00:00",
            "organizations": [
              {
                "name": "Sabor",
                "acronym": null,
                "slug": "1127-sabor",
                "color": "#09A2CC",
                "classification": "root",
                "is_in_coalition": false
              }
            ],
            "classification": "regular",
            "in_review": false,
            "has_transcript": true,
            "has_agenda_items": true,
            "has_minutes": false,
            "has_legislation": true,
            "has_votes": true
          }
        },
        "option": "for"
      }
    ],
    "mandate": {
      "id": 14,
      "description": "Sabor, 11. saziv",
      "beginning": "2024-05-15T00:00:00"
    },
    "person": {
      "slug": "1381-anita-curis-krok",
      "name": "Anita Curiš Krok",
      "honorific_prefix": null,
      "honorific_suffix": null,
      "preferred_pronoun": "she",
      "group": {
        "name": "Klub zastupnika Socijaldemokratske partije Hrvatske",
        "acronym": "SDP",
        "slug": "1009-klub-zastupnika-socijaldemokratske-partije-hrvatske",
        "color": "#F04118",
        "classification": "pg",
        "is_in_coalition": false
      },
      "image": "/media/1381.jpg"
    },
    "count": 336,
    "pages": 34,
    "page": 5,
    "per_page": 10
  }
}
