{
  "id": 44,
  "url": "https://parladata-zagreb.lb.djnd.si/v3/cards/person/questions/?id=44",
  "data": {
    "results": [
      {
        "timestamp": null,
        "answer_timestamp": null,
        "title": "Pitanje se odnosi na izgradnju garaže u Klaićevoj ulici i korištenju školskog igrališta za rekreaciju građana.",
        "authors": [
          {
            "slug": "44-marta-kis",
            "name": "Marta Kiš",
            "honorific_prefix": null,
            "honorific_suffix": null,
            "preferred_pronoun": "she",
            "group": {
              "name": "Klub gradskih zastupnika i zastupnica Možemo! - Zagreb je naš! - Nova ljevica",
              "acronym": "Možemo, ZG je naš, NL",
              "slug": "63-klub-gradskih-zastupnika-i-zastupnica-mozemo-zagreb-je-nas-nova-ljevica",
              "color": "#3CD80D",
              "classification": "pg",
              "is_in_coalition": false
            },
            "image": "https://s3.fr-par.scw.cloud/parlameter/zagreb/44-marta-kis.jpg",
            "is_active": true
          }
        ],
        "recipient_people": [],
        "recipient_text": "Gradonačelniku Grada Zagreba",
        "url": "https://web.zagreb.hr/Sjednice/2021/SkupstinaZapisi_2021.nsf/0/D1410A73CD50224BC1258AD30033224B/$FILE/2E05A.pdf",
        "type": "question",
        "answer": null
      },
      {
        "timestamp": null,
        "answer_timestamp": null,
        "title": "Zastupnicu zanima trenutačno stanje kina Europa i njegova perspektiva.",
        "authors": [
          {
            "slug": "44-marta-kis",
            "name": "Marta Kiš",
            "honorific_prefix": null,
            "honorific_suffix": null,
            "preferred_pronoun": "she",
            "group": {
              "name": "Klub gradskih zastupnika i zastupnica Možemo! - Zagreb je naš! - Nova ljevica",
              "acronym": "Možemo, ZG je naš, NL",
              "slug": "63-klub-gradskih-zastupnika-i-zastupnica-mozemo-zagreb-je-nas-nova-ljevica",
              "color": "#3CD80D",
              "classification": "pg",
              "is_in_coalition": false
            },
            "image": "https://s3.fr-par.scw.cloud/parlameter/zagreb/44-marta-kis.jpg",
            "is_active": true
          },
          {
            "name": "Zagreb je naš!",
            "acronym": "Zagreb je naš!",
            "slug": "33-zagreb-je-nas",
            "color": "#09A2CC",
            "classification": "other",
            "is_in_coalition": false
          }
        ],
        "recipient_people": [],
        "recipient_text": "Pročelniku Gradskog ureda za kulturu, međugradsku i međunarodnu suradnju i civilno društvo",
        "url": "https://web.zagreb.hr/Sjednice/2021/SkupstinaZapisi_2021.nsf/0/812B64CACAC28ADEC12589870035F699/$FILE/1DE66.pdf",
        "type": "question",
        "answer": null
      },
      {
        "timestamp": null,
        "answer_timestamp": null,
        "title": "Zastupnica pita kakav je plan čišćenja ilegalno odloženog glomaznog otpada na području Struga.",
        "authors": [
          {
            "slug": "44-marta-kis",
            "name": "Marta Kiš",
            "honorific_prefix": null,
            "honorific_suffix": null,
            "preferred_pronoun": "she",
            "group": {
              "name": "Klub gradskih zastupnika i zastupnica Možemo! - Zagreb je naš! - Nova ljevica",
              "acronym": "Možemo, ZG je naš, NL",
              "slug": "63-klub-gradskih-zastupnika-i-zastupnica-mozemo-zagreb-je-nas-nova-ljevica",
              "color": "#3CD80D",
              "classification": "pg",
              "is_in_coalition": false
            },
            "image": "https://s3.fr-par.scw.cloud/parlameter/zagreb/44-marta-kis.jpg",
            "is_active": true
          },
          {
            "name": "Zagreb je naš!",
            "acronym": "Zagreb je naš!",
            "slug": "33-zagreb-je-nas",
            "color": "#09A2CC",
            "classification": "other",
            "is_in_coalition": false
          }
        ],
        "recipient_people": [],
        "recipient_text": "Gradonačelniku  Grada Zagreba",
        "url": "https://web.zagreb.hr/Sjednice/2021/SkupstinaZapisi_2021.nsf/0/ADD9F18CC09FB611C125887E00360586/$FILE/13152.pdf",
        "type": "question",
        "answer": null
      },
      {
        "timestamp": null,
        "answer_timestamp": null,
        "title": "Zastupnica traži cjeloviti pregled projekata Zajednica aktivnih građana i Škola i zajednica koji se provodi u školama i što se s tim projektima planira u budućnosti.",
        "authors": [
          {
            "slug": "44-marta-kis",
            "name": "Marta Kiš",
            "honorific_prefix": null,
            "honorific_suffix": null,
            "preferred_pronoun": "she",
            "group": {
              "name": "Klub gradskih zastupnika i zastupnica Možemo! - Zagreb je naš! - Nova ljevica",
              "acronym": "Možemo, ZG je naš, NL",
              "slug": "63-klub-gradskih-zastupnika-i-zastupnica-mozemo-zagreb-je-nas-nova-ljevica",
              "color": "#3CD80D",
              "classification": "pg",
              "is_in_coalition": false
            },
            "image": "https://s3.fr-par.scw.cloud/parlameter/zagreb/44-marta-kis.jpg",
            "is_active": true
          },
          {
            "name": "Zagreb je naš!",
            "acronym": "Zagreb je naš!",
            "slug": "33-zagreb-je-nas",
            "color": "#09A2CC",
            "classification": "other",
            "is_in_coalition": false
          }
        ],
        "recipient_people": [],
        "recipient_text": "Gradonačelniku  Grada Zagreba",
        "url": "https://web.zagreb.hr/Sjednice/2021/SkupstinaZapisi_2021.nsf/0/5AE7FC48F4874BEEC12589D0003F9AC1/$FILE/21EBA.pdf",
        "type": "question",
        "answer": null
      },
      {
        "timestamp": null,
        "answer_timestamp": null,
        "title": "Zastupnicu zanima kada će Zagreb dobiti pravi betonski skate park.",
        "authors": [
          {
            "slug": "44-marta-kis",
            "name": "Marta Kiš",
            "honorific_prefix": null,
            "honorific_suffix": null,
            "preferred_pronoun": "she",
            "group": {
              "name": "Klub gradskih zastupnika i zastupnica Možemo! - Zagreb je naš! - Nova ljevica",
              "acronym": "Možemo, ZG je naš, NL",
              "slug": "63-klub-gradskih-zastupnika-i-zastupnica-mozemo-zagreb-je-nas-nova-ljevica",
              "color": "#3CD80D",
              "classification": "pg",
              "is_in_coalition": false
            },
            "image": "https://s3.fr-par.scw.cloud/parlameter/zagreb/44-marta-kis.jpg",
            "is_active": true
          },
          {
            "name": "Zagreb je naš!",
            "acronym": "Zagreb je naš!",
            "slug": "33-zagreb-je-nas",
            "color": "#09A2CC",
            "classification": "other",
            "is_in_coalition": false
          }
        ],
        "recipient_people": [],
        "recipient_text": "Gradonačelniku  Grada Zagreba",
        "url": "https://web.zagreb.hr/Sjednice/2021/SkupstinaZapisi_2021.nsf/0/3B3E111017C79E0BC12589B9002B2EA4/$FILE/20DAE.pdf",
        "type": "question",
        "answer": null
      },
      {
        "timestamp": null,
        "answer_timestamp": null,
        "title": "Zastupnicu zanima u kojoj je fazi proces uređenja Paromlina i kako će se riješiti problem nedostatka parkirnih mjesta.",
        "authors": [
          {
            "slug": "44-marta-kis",
            "name": "Marta Kiš",
            "honorific_prefix": null,
            "honorific_suffix": null,
            "preferred_pronoun": "she",
            "group": {
              "name": "Klub gradskih zastupnika i zastupnica Možemo! - Zagreb je naš! - Nova ljevica",
              "acronym": "Možemo, ZG je naš, NL",
              "slug": "63-klub-gradskih-zastupnika-i-zastupnica-mozemo-zagreb-je-nas-nova-ljevica",
              "color": "#3CD80D",
              "classification": "pg",
              "is_in_coalition": false
            },
            "image": "https://s3.fr-par.scw.cloud/parlameter/zagreb/44-marta-kis.jpg",
            "is_active": true
          },
          {
            "name": "Zagreb je naš!",
            "acronym": "Zagreb je naš!",
            "slug": "33-zagreb-je-nas",
            "color": "#09A2CC",
            "classification": "other",
            "is_in_coalition": false
          }
        ],
        "recipient_people": [],
        "recipient_text": "Gradonačelniku  Grada Zagreba",
        "url": "https://web.zagreb.hr/Sjednice/2021/SkupstinaZapisi_2021.nsf/0/84D447836BB9BDC9C1258A630037EB66/$FILE/28136.pdf",
        "type": "question",
        "answer": null
      },
      {
        "timestamp": null,
        "answer_timestamp": null,
        "title": "Zastupnicu zanima kako teče obnova nakon potresa koju organizira Grad Zagreb u odnosu na onu na Baniji, gdje niti četiri godine nakon potresa nije mnogo napravljeno, a mnoge kuće još nisu niti srušene.",
        "authors": [
          {
            "slug": "44-marta-kis",
            "name": "Marta Kiš",
            "honorific_prefix": null,
            "honorific_suffix": null,
            "preferred_pronoun": "she",
            "group": {
              "name": "Klub gradskih zastupnika i zastupnica Možemo! - Zagreb je naš! - Nova ljevica",
              "acronym": "Možemo, ZG je naš, NL",
              "slug": "63-klub-gradskih-zastupnika-i-zastupnica-mozemo-zagreb-je-nas-nova-ljevica",
              "color": "#3CD80D",
              "classification": "pg",
              "is_in_coalition": false
            },
            "image": "https://s3.fr-par.scw.cloud/parlameter/zagreb/44-marta-kis.jpg",
            "is_active": true
          },
          {
            "name": "Zagreb je naš!",
            "acronym": "Zagreb je naš!",
            "slug": "33-zagreb-je-nas",
            "color": "#09A2CC",
            "classification": "other",
            "is_in_coalition": false
          }
        ],
        "recipient_people": [],
        "recipient_text": "Gradonačelniku Grada Zagreba",
        "url": "https://web.zagreb.hr/Sjednice/2021/SkupstinaZapisi_2021.nsf/0/D203667FB9B8DA11C1258AE8003193D3/$FILE/2FDCA.pdf",
        "type": "question",
        "answer": null
      },
      {
        "timestamp": null,
        "answer_timestamp": null,
        "title": "Zastupnicu zanima postoji li mogućnost da se na lokalnoj razini ukine ili smanji korištenje mobitela u školama, budući da se na nacionalnoj razini to nije uspjelo riješiti.",
        "authors": [
          {
            "slug": "44-marta-kis",
            "name": "Marta Kiš",
            "honorific_prefix": null,
            "honorific_suffix": null,
            "preferred_pronoun": "she",
            "group": {
              "name": "Klub gradskih zastupnika i zastupnica Možemo! - Zagreb je naš! - Nova ljevica",
              "acronym": "Možemo, ZG je naš, NL",
              "slug": "63-klub-gradskih-zastupnika-i-zastupnica-mozemo-zagreb-je-nas-nova-ljevica",
              "color": "#3CD80D",
              "classification": "pg",
              "is_in_coalition": false
            },
            "image": "https://s3.fr-par.scw.cloud/parlameter/zagreb/44-marta-kis.jpg",
            "is_active": true
          },
          {
            "name": "Zagreb je naš!",
            "acronym": "Zagreb je naš!",
            "slug": "33-zagreb-je-nas",
            "color": "#09A2CC",
            "classification": "other",
            "is_in_coalition": false
          }
        ],
        "recipient_people": [],
        "recipient_text": "Gradonačelniku  Grada Zagreba",
        "url": "https://web.zagreb.hr/Sjednice/2021/SkupstinaZapisi_2021.nsf/0/AED7EBF1ACAA1DE4C1258A840039CDA0/$FILE/29C42.pdf",
        "type": "question",
        "answer": null
      },
      {
        "timestamp": null,
        "answer_timestamp": null,
        "title": "Zastupnicu zanima na koji se način mogu pratiti događanja u sklopu plana potreba za aktivnostima, programima i projektima unapređenja kvalitete života građana, koji je ove godine prvi put uveden u vijeća gradskih četvrti i mjesnih odbora, što se sve u kvartovima zbiva ovih dana i što se planira sljedeće godine.",
        "authors": [
          {
            "slug": "44-marta-kis",
            "name": "Marta Kiš",
            "honorific_prefix": null,
            "honorific_suffix": null,
            "preferred_pronoun": "she",
            "group": {
              "name": "Klub gradskih zastupnika i zastupnica Možemo! - Zagreb je naš! - Nova ljevica",
              "acronym": "Možemo, ZG je naš, NL",
              "slug": "63-klub-gradskih-zastupnika-i-zastupnica-mozemo-zagreb-je-nas-nova-ljevica",
              "color": "#3CD80D",
              "classification": "pg",
              "is_in_coalition": false
            },
            "image": "https://s3.fr-par.scw.cloud/parlameter/zagreb/44-marta-kis.jpg",
            "is_active": true
          },
          {
            "name": "Zagreb je naš!",
            "acronym": "Zagreb je naš!",
            "slug": "33-zagreb-je-nas",
            "color": "#09A2CC",
            "classification": "other",
            "is_in_coalition": false
          }
        ],
        "recipient_people": [],
        "recipient_text": "Gradonačelniku  Grada Zagreba",
        "url": "https://web.zagreb.hr/Sjednice/2021/SkupstinaZapisi_2021.nsf/0/549FA685A8C23B5DC1258B2C0028901A/$FILE/32166.pdf",
        "type": "question",
        "answer": null
      },
      {
        "timestamp": null,
        "answer_timestamp": null,
        "title": "Zastupnicu zanima kada će se učenici vratiti na nastavu u Gornjogradsku gimnaziju.",
        "authors": [
          {
            "slug": "44-marta-kis",
            "name": "Marta Kiš",
            "honorific_prefix": null,
            "honorific_suffix": null,
            "preferred_pronoun": "she",
            "group": {
              "name": "Klub gradskih zastupnika i zastupnica Možemo! - Zagreb je naš! - Nova ljevica",
              "acronym": "Možemo, ZG je naš, NL",
              "slug": "63-klub-gradskih-zastupnika-i-zastupnica-mozemo-zagreb-je-nas-nova-ljevica",
              "color": "#3CD80D",
              "classification": "pg",
              "is_in_coalition": false
            },
            "image": "https://s3.fr-par.scw.cloud/parlameter/zagreb/44-marta-kis.jpg",
            "is_active": true
          },
          {
            "name": "Zagreb je naš!",
            "acronym": "Zagreb je naš!",
            "slug": "33-zagreb-je-nas",
            "color": "#09A2CC",
            "classification": "other",
            "is_in_coalition": false
          }
        ],
        "recipient_people": [],
        "recipient_text": "Gradonačelniku  Grada Zagreba",
        "url": "https://web.zagreb.hr/Sjednice/2021/SkupstinaZapisi_2021.nsf/0/84761F6F86873FB7C1258C1C0037BB83/$FILE/3E372.pdf",
        "type": "question",
        "answer": null
      }
    ],
    "mandate": {
      "id": 1,
      "description": "Mandat 2021-2025",
      "beginning": null
    },
    "person": {
      "slug": "44-marta-kis",
      "name": "Marta Kiš",
      "honorific_prefix": null,
      "honorific_suffix": null,
      "preferred_pronoun": "she",
      "group": {
        "name": "Klub gradskih zastupnika i zastupnica Možemo! - Zagreb je naš! - Nova ljevica",
        "acronym": "Možemo, ZG je naš, NL",
        "slug": "63-klub-gradskih-zastupnika-i-zastupnica-mozemo-zagreb-je-nas-nova-ljevica",
        "color": "#3CD80D",
        "classification": "pg",
        "is_in_coalition": false
      },
      "image": "https://s3.fr-par.scw.cloud/parlameter/zagreb/44-marta-kis.jpg",
      "is_active": true
    },
    "count": 13,
    "pages": 2,
    "page": 1,
    "per_page": 10
  }
}
